summary: Tickers vX
description: | 
  Query all ticker symbols which are supported by Polygon.io. This API currently includes Stocks/Equities, Crypto, and Forex.
parameters: 
  - name: ticker
    in: query
    description: |
      Specify a ticker symbol.
      Defaults to empty string which queries all tickers.
    required: false
    schema:
      type: string
  # Result Filtering: ticker
  - $ref: '../../pagination.yml#/LTQueryParam'
    name: ticker.lt
    schema:
      $ref: 'schemas/index.yml#/StockSymbol'
  - $ref: '../../pagination.yml#/LTEQueryParam'
    name: ticker.lte
    schema:
      $ref: 'schemas/index.yml#/StockSymbol'
  - $ref: '../../pagination.yml#/GTQueryParam'
    name: ticker.gt
    schema:
      $ref: 'schemas/index.yml#/StockSymbol'
  - $ref: '../../pagination.yml#/GTEQueryParam'
    name: ticker.gte
    schema:
      $ref: 'schemas/index.yml#/StockSymbol'
  - name: type
    in: query
    description: |
      Specify the type of the tickers. Find the types that we support via our [Ticker Types API](https://polygon.io/docs/get_v2_reference_types_anchor).
      Defaults to empty string which queries all types.
    required: false
    schema:
      type: string
  - name: market
    in: query
    description: |
      Filter by market type. By default all markets are included.
    required: false
    schema:
      type: string
      enum:
        - stocks
        - crypto
        - fx
  - name: exchange
    in: query
    description: |
      Specify the primary exchange of the asset in the ISO code format. Find more information about the ISO codes [at the ISO org website](https://www.iso20022.org/market-identifier-codes).
      Defaults to empty string which queries all exchanges.
    required: false
    schema:
      type: string
  - name: cusip
    in: query
    description: |
      Specify the CUSIP code of the asset you want to search for. Find more information about CUSIP codes [at their website](https://www.cusip.com/identifiers.html#/CUSIP).
      Defaults to empty string which queries all CUSIPs.

      Note: Although you can query by CUSIP, due to legal reasons we do not return the CUSIP in the response.
    required: false
    schema:
      type: string
  - name: date
    in: query
    description: |
      Specify a point in time to retrieve tickers available on that date.
      Defaults to the most recent available date.
    required: false
    schema:
      $ref: '../../schemas/index.yml#/Date'
  - name: search
    in: query
    description: |
      Search for terms within the ticker and/or company name.
    required: false
    schema:
      type: string
  - name: active
    in: query
    description: |
      Specify if the tickers returned should be actively traded on the queried date. Default is true.
    required: false
    schema:
      type: boolean
    example: true
  - name: sort
    in: query
    description: |
      The field to sort the results on. Default is ticker.
    required: false
    schema:
      type: string
    example: ticker
  - name: order
    in: query
    description: |
      The order to sort the results on. Default is asc (ascending).
    required: false
    schema:
      type: string
      enum:
        - asc
        - desc
    example: asc
  - name: limit
    in: query
    description: |
      Limit the size of the response, default is 100 and max is 1000.

      If your query returns more than the max limit and you want to retrieve the next page of results,
      see the `next_page_path` response attribute.

    required: false
    schema:
      type: integer
    example: 10
tags:
  - Reference
responses:
  200:
    description: Reference Tickers.
    content:
      application/json:
        schema:
          allOf:
            - $ref: '../../schemas/index.yml#/vXTickers'
            - $ref: '../../schemas/index.yml#/PaginationHooksBase'
            - $ref: '../../schemas/index.yml#/RequestIdBase'
            - $ref: '../../schemas/index.yml#/StatusCountBase'
        example:
          {
            "results": [
              {
                "ticker": "A",
                "name": "Agilent Technologies Inc.",
                "market": "stocks",
                "locale": "us",
                "primary_exchange": "XNYS",
                "type": "CS",
                "active": true,
                "currency_name": "usd",
                "cik": "0001090872",
                "composite_figi": "BBG000BWQYZ5",
                "share_class_figi": "BBG001SCTQY4",
                "last_updated_utc": "2021-04-25T00:00:00Z"
              }
            ],
            "status": "OK",
            "request_id": "e70013d92930de90e089dc8fa098888e",
            "count": 1,
            "next_url": "https://api.polygon.io/vX/reference/tickers?cursor=YWN0aXZlPXRydWUmZGF0ZT0yMDIxLTA0LTI1JmxpbWl0PTEmb3JkZXI9YXNjJnBhZ2VfbWFya2VyPUElN0M5YWRjMjY0ZTgyM2E1ZjBiOGUyNDc5YmZiOGE1YmYwNDVkYzU0YjgwMDcyMWE2YmI1ZjBjMjQwMjU4MjFmNGZiJnNvcnQ9dGlja2Vy"
          }
  401:
    $ref: '../../responses.yml#/Unauthorized'
x-polygon-entitlement-data-type:
  $ref: '../../schemas/common/entitlementDataTypes.yml#/Reference'
x-polygon-experimental:
  replaces: 
    path: 'get_v2_reference_tickers_anchor'
    name: 'Tickers'
